<svg width="16" height="14" viewBox="0 0 16 14" fill="none" xmlns="http://www.w3.org/2000/svg">
<path fill-rule="evenodd" clip-rule="evenodd" d="M12.0155 13C13.3655 13 14.4584 11.9063 14.4584 10.5571V8.61313C13.5656 8.61313 12.8456 7.89314 12.8456 7.00108C12.8456 6.1083 13.5656 5.38903 14.4584 5.38903L14.457 3.44291C14.457 2.09366 13.364 1 12.0148 1H3.5823C2.23305 1 1.13939 2.09366 1.13939 3.44291L1.13867 5.45167C2.03073 5.45167 2.75072 6.1083 2.75072 7.00108C2.75072 7.89314 2.03073 8.61313 1.13867 8.61313V10.5571C1.13867 11.9063 2.23161 13 3.58086 13H12.0155Z" stroke="#BFBFBF" stroke-width="1.5" stroke-linecap="round" stroke-linejoin="round"/>
<path fill-rule="evenodd" clip-rule="evenodd" d="M7.79806 8.2755L9.05084 8.93429C9.16819 8.99549 9.30571 8.89613 9.28339 8.76581L9.04364 7.36976L10.0581 6.38266C10.1531 6.28978 10.1006 6.12922 9.96954 6.10978L8.56845 5.90603L7.94134 4.63597C7.88302 4.51718 7.71382 4.51718 7.65478 4.63597L7.02768 5.90603L5.6273 6.10978C5.49627 6.12922 5.44371 6.28978 5.53875 6.38266L6.55249 7.36976L6.31273 8.76581C6.29041 8.89613 6.42793 8.99549 6.54529 8.93429L7.79806 8.2755Z" stroke="#BFBFBF" stroke-width="1.5" stroke-linecap="round" stroke-linejoin="round"/>
</svg>
